// Jest Snapshot v1, https://goo.gl/fbAQLP

exports[`AppComponent should match snapshot 1`] = `
<app-root>
  <app-header />
  <div
    class="content-container"
  >
    <router-outlet />
  </div>
  <app-footer />
</app-root>
`;
